{
    "key": "post_type_6500e225f35f4",
    "title": "News",
    "menu_order": 0,
    "active": true,
    "post_type": "news",
    "advanced_configuration": true,
    "import_source": "",
    "import_date": "",
    "labels": {
        "name": "News",
        "singular_name": "News",
        "menu_name": "News",
        "all_items": "All News",
        "edit_item": "Edit News",
        "view_item": "View News",
        "view_items": "View News",
        "add_new_item": "Add New News",
        "add_new": "",
        "new_item": "New News",
        "parent_item_colon": "Parent News:",
        "search_items": "Search News",
        "not_found": "No news found",
        "not_found_in_trash": "No news found in Trash",
        "archives": "News Archives",
        "attributes": "News Attributes",
        "featured_image": "",
        "set_featured_image": "",
        "remove_featured_image": "",
        "use_featured_image": "",
        "insert_into_item": "Insert into news",
        "uploaded_to_this_item": "Uploaded to this news",
        "filter_items_list": "Filter news list",
        "filter_by_date": "Filter news by date",
        "items_list_navigation": "News list navigation",
        "items_list": "News list",
        "item_published": "News published.",
        "item_published_privately": "News published privately.",
        "item_reverted_to_draft": "News reverted to draft.",
        "item_scheduled": "News scheduled.",
        "item_updated": "News updated.",
        "item_link": "News Link",
        "item_link_description": "A link to a news."
    },
    "description": "",
    "public": true,
    "hierarchical": false,
    "exclude_from_search": false,
    "publicly_queryable": true,
    "show_ui": true,
    "show_in_menu": true,
    "admin_menu_parent": "",
    "show_in_admin_bar": true,
    "show_in_nav_menus": true,
    "show_in_rest": true,
    "rest_base": "",
    "rest_namespace": "wp\/v2",
    "rest_controller_class": "WP_REST_Posts_Controller",
    "menu_position": "",
    "menu_icon": "dashicons-rss",
    "rename_capabilities": false,
    "singular_capability_name": "post",
    "plural_capability_name": "posts",
    "supports": [
        "title",
        "author",
        "revisions",
        "thumbnail",
        "custom-fields"
    ],
    "taxonomies": [
        "news-type",
        "topic"
    ],
    "has_archive": false,
    "has_archive_slug": "",
    "rewrite": {
        "permalink_rewrite": "post_type_key",
        "with_front": "1",
        "feeds": "0",
        "pages": "1"
    },
    "query_var": "post_type_key",
    "query_var_name": "",
    "can_export": true,
    "delete_with_user": false,
    "register_meta_box_cb": "",
    "enter_title_here": "",
    "modified": 1696969470
}
