{
    "key": "post_type_6500e28c2b2fe",
    "title": "Programs",
    "menu_order": 0,
    "active": true,
    "post_type": "program",
    "advanced_configuration": true,
    "import_source": "",
    "import_date": "",
    "labels": {
        "name": "Programs",
        "singular_name": "Program",
        "menu_name": "Program",
        "all_items": "All Programs",
        "edit_item": "Edit Program",
        "view_item": "View Program",
        "view_items": "View Program",
        "add_new_item": "Add New Program",
        "add_new": "",
        "new_item": "New Program",
        "parent_item_colon": "Parent Program:",
        "search_items": "Search Program",
        "not_found": "No program found",
        "not_found_in_trash": "No program found in Trash",
        "archives": "Program Archives",
        "attributes": "Program Attributes",
        "featured_image": "",
        "set_featured_image": "",
        "remove_featured_image": "",
        "use_featured_image": "",
        "insert_into_item": "Insert into program",
        "uploaded_to_this_item": "Uploaded to this program",
        "filter_items_list": "Filter program list",
        "filter_by_date": "Filter program by date",
        "items_list_navigation": "Program list navigation",
        "items_list": "Program list",
        "item_published": "Program published.",
        "item_published_privately": "Program published privately.",
        "item_reverted_to_draft": "Program reverted to draft.",
        "item_scheduled": "Program scheduled.",
        "item_updated": "Program updated.",
        "item_link": "Program Link",
        "item_link_description": "A link to a program."
    },
    "description": "",
    "public": true,
    "hierarchical": false,
    "exclude_from_search": false,
    "publicly_queryable": true,
    "show_ui": true,
    "show_in_menu": true,
    "admin_menu_parent": "",
    "show_in_admin_bar": true,
    "show_in_nav_menus": true,
    "show_in_rest": true,
    "rest_base": "",
    "rest_namespace": "wp\/v2",
    "rest_controller_class": "WP_REST_Posts_Controller",
    "menu_position": "",
    "menu_icon": "dashicons-feedback",
    "rename_capabilities": false,
    "singular_capability_name": "post",
    "plural_capability_name": "posts",
    "supports": [
        "title",
        "author",
        "revisions",
        "thumbnail",
        "custom-fields"
    ],
    "taxonomies": [
        "topic"
    ],
    "has_archive": false,
    "has_archive_slug": "",
    "rewrite": {
        "permalink_rewrite": "custom_permalink",
        "slug": "programs",
        "with_front": "1",
        "feeds": "0",
        "pages": "1"
    },
    "query_var": "post_type_key",
    "query_var_name": "",
    "can_export": true,
    "delete_with_user": false,
    "register_meta_box_cb": "",
    "enter_title_here": "",
    "modified": 1696969689
}
