{
    "key": "post_type_65011edc2baca",
    "title": "Resources",
    "menu_order": 0,
    "active": true,
    "post_type": "resource",
    "advanced_configuration": true,
    "import_source": "",
    "import_date": "",
    "labels": {
        "name": "Resources",
        "singular_name": "Resource",
        "menu_name": "Resource",
        "all_items": "All Resources",
        "edit_item": "Edit Resource",
        "view_item": "View Resource",
        "view_items": "View Resources",
        "add_new_item": "Add New Resource",
        "add_new": "",
        "new_item": "New Resource",
        "parent_item_colon": "Parent Resource:",
        "search_items": "Search Resources",
        "not_found": "No resources found",
        "not_found_in_trash": "No resources found in Trash",
        "archives": "Resource Archives",
        "attributes": "Resource Attributes",
        "featured_image": "",
        "set_featured_image": "",
        "remove_featured_image": "",
        "use_featured_image": "",
        "insert_into_item": "Insert into resource",
        "uploaded_to_this_item": "Uploaded to this resource",
        "filter_items_list": "Filter resources list",
        "filter_by_date": "Filter resources by date",
        "items_list_navigation": "Resources list navigation",
        "items_list": "Resources list",
        "item_published": "Resource published.",
        "item_published_privately": "Resource published privately.",
        "item_reverted_to_draft": "Resource reverted to draft.",
        "item_scheduled": "Resource scheduled.",
        "item_updated": "Resource updated.",
        "item_link": "Resource Link",
        "item_link_description": "A link to a resource."
    },
    "description": "",
    "public": true,
    "hierarchical": false,
    "exclude_from_search": false,
    "publicly_queryable": true,
    "show_ui": true,
    "show_in_menu": true,
    "admin_menu_parent": "",
    "show_in_admin_bar": true,
    "show_in_nav_menus": true,
    "show_in_rest": true,
    "rest_base": "",
    "rest_namespace": "wp\/v2",
    "rest_controller_class": "WP_REST_Posts_Controller",
    "menu_position": "",
    "menu_icon": "",
    "rename_capabilities": false,
    "singular_capability_name": "post",
    "plural_capability_name": "posts",
    "supports": [
        "title",
        "author",
        "revisions",
        "thumbnail",
        "custom-fields"
    ],
    "taxonomies": [
        "resource-type",
        "topic"
    ],
    "has_archive": false,
    "has_archive_slug": "",
    "rewrite": {
        "permalink_rewrite": "post_type_key",
        "with_front": "1",
        "feeds": "0",
        "pages": "1"
    },
    "query_var": "post_type_key",
    "query_var_name": "",
    "can_export": true,
    "delete_with_user": false,
    "register_meta_box_cb": "",
    "enter_title_here": "",
    "modified": 1694581231
}
